{
  "project_info": {
    "project_number": "827531514658",
    "firebase_url": "https://examenandroid-eb487.firebaseio.com",
    "project_id": "examenandroid-eb487",
    "storage_bucket": "examenandroid-eb487.appspot.com"
  },
  "client": [
    {
      "client_info": {
        "mobilesdk_app_id": "1:827531514658:android:d1f6bd331931e76c",
        "android_client_info": {
          "package_name": "cl.duoc.examenandroid"
        }
      },
      "oauth_client": [
        {
          "client_id": "827531514658-6k42bl3mcqpuno6lka98mmc6r8d7hd2d.apps.googleusercontent.com",
          "client_type": 1,
          "android_info": {
            "package_name": "cl.duoc.examenandroid",
            "certificate_hash": "271c275835b9c6aee83f5da524049a49615f5b0c"
          }
        },
        {
          "client_id": "827531514658-mur1l3u7f3d2ekhqcr15l2jugtlrikoa.apps.googleusercontent.com",
          "client_type": 3
        }
      ],
      "api_key": [
        {
          "current_key": "AIzaSyBs0ANMRuNuFSW_7MPrNiRWvHsohxLyOs0"
        }
      ],
      "services": {
        "analytics_service": {
          "status": 1
        },
        "appinvite_service": {
          "status": 2,
          "other_platform_oauth_client": [
            {
              "client_id": "827531514658-mur1l3u7f3d2ekhqcr15l2jugtlrikoa.apps.googleusercontent.com",
              "client_type": 3
            }
          ]
        },
        "ads_service": {
          "status": 2
        }
      }
    }
  ],
  "configuration_version": "1"
}